PyJobTransforms.main 2019-08-04 19:07:33,212 INFO This is /cvmfs/atlas.cern.ch/repo/sw/software/x86_64-slc6-gcc47-opt/19.2.5/AtlasProduction/19.2.5.5/InstallArea/share/bin/Generate_tf.py
PyJobTransforms.transform.parseCmdLineArgs 2019-08-04 19:07:33,216 INFO Transform command line was: '/cvmfs/atlas.cern.ch/repo/sw/software/x86_64-slc6-gcc47-opt/19.2.5/AtlasProduction/19.2.5.5/InstallArea/share/bin/Generate_tf.py' '--ecmEnergy=13000' '--firstEvent=47060001' '--jobConfig=/bmk/atlas-gen/auxfiles/MC15.410501.PowhegPythia8EvtGen_A14_ttbar_hdamp258p75_nonallhad.py' '--maxEvents=5' '--outputEVNTFile=EVNT.10867034._003922.pool.root.1' '--outputTXTFile=TXT.10867034._003922.tar.gz.1' '--randomSeed=9413' '--runNumber=410501' '--skipEvents=17060000'
PyJobTransforms.transform.execute 2019-08-04 19:07:33,218 INFO Starting to resolve execution graph
PyJobTransforms.transform.execute 2019-08-04 19:07:33,220 INFO Execution graph resolved
PyJobTransforms.transform.execute 2019-08-04 19:07:33,220 INFO Starting to trace execution path
PyJobTransforms.transform.execute 2019-08-04 19:07:33,221 INFO Execution path found with 1 step(s): generate
PyJobTransforms.transform.validateInFiles 2019-08-04 19:07:33,221 INFO Validating input files
PyJobTransforms.trfValidation.performStandardFileValidation 2019-08-04 19:07:33,221 INFO Starting legacy (serial) file validation
PyJobTransforms.trfValidation.performStandardFileValidation 2019-08-04 19:07:33,221 INFO Stopping legacy (serial) file validation
PyJobTransforms.trfExe._detectAthenaMP 2019-08-04 19:07:33,222 INFO No AthenaMP options found - assuming normal athena run
PyJobTransforms.trfJobOptions.writeRunArgs 2019-08-04 19:07:33,222 INFO Writing runArgs to file "runargs.generate.py"
PyJobTransforms.trfJobOptions.writeRunArgs 2019-08-04 19:07:33,222 INFO Successfully wrote runargs file runargs.generate.py
PyJobTransforms.trfExe.preExecute 2019-08-04 19:07:33,225 INFO Asetup report: 	AtlasBaseDir=/cvmfs/atlas.cern.ch/repo/sw/software/x86_64-slc6-gcc47-opt/19.2.5
	AtlasProject=AtlasProduction
	AtlasVersion=19.2.5.5
	AtlasPatch=AtlasProduction
	AtlasPatchVersion=19.2.5.5
	CMTCONFIG=x86_64-slc6-gcc47-opt
No readable patch area found
PyJobTransforms.trfUtils.releaseIsOlderThan 2019-08-04 19:07:33,225 INFO Detected release major 19, minor 2 (.5.5) from environment
PyJobTransforms.trfEnv.probeIMFSettings 2019-08-04 19:07:33,225 INFO Enabling IMF by default for release
PyJobTransforms.trfEnv.probeTcmallocSettings 2019-08-04 19:07:33,228 INFO Skipping inclusion of tcmalloc
PyJobTransforms.trfExe._prepAthenaCommandLine 2019-08-04 19:07:33,228 INFO Setting athena preloadlibs to: /cvmfs/atlas.cern.ch/repo/sw/software/x86_64-slc6-gcc47-opt/19.2.5/sw/IntelSoftware/linux/x86_64/xe2013/composer_xe_2013.3.163/compiler/lib/intel64/libintlc.so.5:/cvmfs/atlas.cern.ch/repo/sw/software/x86_64-slc6-gcc47-opt/19.2.5/sw/IntelSoftware/linux/x86_64/xe2013/composer_xe_2013.3.163/compiler/lib/intel64/libimf.so
PyJobTransforms.trfExe._prepAthenaCommandLine 2019-08-04 19:07:33,228 INFO Skipping test for "--drop-and-reload" in this executor
PyJobTransforms.trfExe._prepAthenaCommandLine 2019-08-04 19:07:33,228 INFO Updated script arguments with topoptions: ['athena.py', '--preloadlib=/cvmfs/atlas.cern.ch/repo/sw/software/x86_64-slc6-gcc47-opt/19.2.5/sw/IntelSoftware/linux/x86_64/xe2013/composer_xe_2013.3.163/compiler/lib/intel64/libintlc.so.5:/cvmfs/atlas.cern.ch/repo/sw/software/x86_64-slc6-gcc47-opt/19.2.5/sw/IntelSoftware/linux/x86_64/xe2013/composer_xe_2013.3.163/compiler/lib/intel64/libimf.so', 'runargs.generate.py', 'EvgenJobTransforms/skeleton.GENtoEVGEN.py']
PyJobTransforms.trfExe.preExecute 2019-08-04 19:07:33,228 INFO Will execute script as ['athena.py', '--preloadlib=/cvmfs/atlas.cern.ch/repo/sw/software/x86_64-slc6-gcc47-opt/19.2.5/sw/IntelSoftware/linux/x86_64/xe2013/composer_xe_2013.3.163/compiler/lib/intel64/libintlc.so.5:/cvmfs/atlas.cern.ch/repo/sw/software/x86_64-slc6-gcc47-opt/19.2.5/sw/IntelSoftware/linux/x86_64/xe2013/composer_xe_2013.3.163/compiler/lib/intel64/libimf.so', 'runargs.generate.py', 'EvgenJobTransforms/skeleton.GENtoEVGEN.py']
PyJobTransforms.trfExe.preExecute 2019-08-04 19:07:33,228 INFO Batch/grid running - command outputs will not be echoed. Logs for generate are in log.generate
PyJobTransforms.trfExe.preExecute 2019-08-04 19:07:33,228 INFO Now writing wrapper for substep executor generate
PyJobTransforms.trfExe._writeAthenaWrapper 2019-08-04 19:07:33,229 INFO Valgrind not engaged
PyJobTransforms.trfExe.preExecute 2019-08-04 19:07:33,229 INFO Athena will be executed in a subshell via ['./runwrapper.generate.sh']
PyJobTransforms.preExecute 2019-08-04 19:07:33,238 INFO $ATLAS_SW_BASE not defined, trying explicite /cvmfs path
PyJobTransforms.preExecute 2019-08-04 19:07:33,484 INFO No evgenJobOpts tarball specified, using JOBOPTSEARCHPATH = '.:_joproxy15/nonStandard/Pythia8B:_joproxy15/nonStandard/Pythia8:_joproxy15/nonStandard/Photos:_joproxy15/nonStandard/Tauola:_joproxy15/nonStandard/Herwig:_joproxy15/nonStandard/Herwig7:_joproxy15/nonStandard/MadGraph:_joproxy15/common/Hijing:_joproxy15/common/Sherpa:_joproxy15/common/BeamHaloGenerator:_joproxy15/common/MCFM:_joproxy15/common/Herwig7:_joproxy15/common/starlight:_joproxy15/common/Herwigpp:_joproxy15/common/EvtGen:_joproxy15/common/Powheg:_joproxy15/common/MadGraph:_joproxy15/common/Pythia8:_joproxy15/common/HepMCReadFromFile:_joproxy15/common/PythiaRhad:_joproxy15/common/ParticleGun:_joproxy15/common/Epos:_joproxy15/common/Pythia:_joproxy15/common/Pythia8B:_joproxy15/common/Filters:_joproxy15/common/ProtosLHEF:_joproxy15/.git/branches:_joproxy15/.git/refs:_joproxy15/.git/info:_joproxy15/.git/objects:_joproxy15/.git/logs:_joproxy15/.git/hooks:_joproxy15/susycontrol:_joproxy15/higgscontrol:_joproxy15/nonStandard:_joproxy15/common:_joproxy15/HI_fragments:_joproxy15/share:_joproxy15/gencontrol:_joproxy15/.git:_joproxy15/exocontrol:_joproxy15/bin:_joproxy15/topcontrol:.:/cvmfs/atlas.cern.ch/repo/sw/software/x86_64-slc6-gcc47-opt/19.2.5/AtlasProduction/19.2.5.5/InstallArea/jobOptions:/cvmfs/atlas.cern.ch/repo/sw/software/x86_64-slc6-gcc47-opt/19.2.5/AtlasOffline/19.2.5/InstallArea/jobOptions:/cvmfs/atlas.cern.ch/repo/sw/software/x86_64-slc6-gcc47-opt/19.2.5/AtlasAnalysis/19.2.5/InstallArea/jobOptions:/cvmfs/atlas.cern.ch/repo/sw/software/x86_64-slc6-gcc47-opt/19.2.5/AtlasSimulation/19.2.5/InstallArea/jobOptions:/cvmfs/atlas.cern.ch/repo/sw/software/x86_64-slc6-gcc47-opt/19.2.5/AtlasTrigger/19.2.5/InstallArea/jobOptions:/cvmfs/atlas.cern.ch/repo/sw/software/x86_64-slc6-gcc47-opt/19.2.5/AtlasReconstruction/19.2.5/InstallArea/jobOptions:/cvmfs/atlas.cern.ch/repo/sw/software/x86_64-slc6-gcc47-opt/19.2.5/AtlasEvent/19.2.5/InstallArea/jobOptions:/cvmfs/atlas.cern.ch/repo/sw/software/x86_64-slc6-gcc47-opt/19.2.5/AtlasConditions/19.2.5/InstallArea/jobOptions:/cvmfs/atlas.cern.ch/repo/sw/software/x86_64-slc6-gcc47-opt/19.2.5/AtlasCore/19.2.5/InstallArea/jobOptions:/cvmfs/atlas.cern.ch/repo/sw/software/x86_64-slc6-gcc47-opt/19.2.5/GAUDI/v25r3p1/InstallArea/jobOptions'
PyJobTransforms.trfExe.execute 2019-08-04 19:07:33,484 INFO Starting execution of generate (['./runwrapper.generate.sh'])
PyJobTransforms.trfExe.execute 2019-08-04 19:12:56,876 INFO generate executor returns 0
PyJobTransforms.trfExe.validate 2019-08-04 19:12:56,876 INFO Executor generate validated successfully (return code 0)
PyJobTransforms.trfExe.validate 2019-08-04 19:13:06,854 INFO Event counting for substep generate passed
PyJobTransforms.trfExe.validate 2019-08-04 19:13:06,875 INFO Scanning logfile log.generate for errors
PyJobTransforms.trfExe.validate 2019-08-04 19:13:08,924 INFO Executor generate has validated successfully
PyJobTransforms.transform.validateOutFiles 2019-08-04 19:13:08,925 INFO Validating output files
PyJobTransforms.trfValidation.performStandardFileValidation 2019-08-04 19:13:08,925 INFO Starting legacy (serial) file validation
PyJobTransforms.trfValidation.performStandardFileValidation 2019-08-04 19:13:08,925 INFO Validating data type TXT...
PyJobTransforms.trfValidation.performStandardFileValidation 2019-08-04 19:13:08,925 INFO Validating file TXT.10867034._003922.tar.gz.1...
PyJobTransforms.trfValidation.performStandardFileValidation 2019-08-04 19:13:08,925 INFO TXT.10867034._003922.tar.gz.1: Testing corruption...
PyJobTransforms.trfValidation.performStandardFileValidation 2019-08-04 19:13:08,925 INFO Corruption test passed.
PyJobTransforms.trfValidation.performStandardFileValidation 2019-08-04 19:13:08,925 INFO TXT.10867034._003922.tar.gz.1: Testing event count...
PyJobTransforms.trfValidation.performStandardFileValidation 2019-08-04 19:13:08,925 INFO Event counting test passed (UNDEFINED events).
PyJobTransforms.trfValidation.performStandardFileValidation 2019-08-04 19:13:08,925 INFO TXT.10867034._003922.tar.gz.1: Checking if guid exists...
PyJobTransforms.trfValidation.performStandardFileValidation 2019-08-04 19:13:08,925 INFO Guid is C566A43C-A7B1-4BAD-B007-5E0F1D0DFE26
PyJobTransforms.trfValidation.performStandardFileValidation 2019-08-04 19:13:08,926 INFO Validating data type EVNT...
PyJobTransforms.trfValidation.performStandardFileValidation 2019-08-04 19:13:08,926 INFO Validating file EVNT.10867034._003922.pool.root.1...
PyJobTransforms.trfValidation.performStandardFileValidation 2019-08-04 19:13:08,926 INFO EVNT.10867034._003922.pool.root.1: Testing corruption...
Warning in <TEnvRec::ChangeValue>: duplicate entry <Library.vector<bool>=vector.dll vectorbool.dll> for level 0; ignored
Warning in <TEnvRec::ChangeValue>: duplicate entry <Library.vector<char>=vector.dll vectorbool.dll> for level 0; ignored
Warning in <TEnvRec::ChangeValue>: duplicate entry <Library.vector<double>=vector.dll vectorbool.dll> for level 0; ignored
Warning in <TEnvRec::ChangeValue>: duplicate entry <Library.vector<float>=vector.dll vectorbool.dll> for level 0; ignored
Warning in <TEnvRec::ChangeValue>: duplicate entry <Library.vector<long>=vector.dll vectorbool.dll> for level 0; ignored
Warning in <TEnvRec::ChangeValue>: duplicate entry <Library.vector<short>=vector.dll vectorbool.dll> for level 0; ignored
Warning in <TEnvRec::ChangeValue>: duplicate entry <Library.vector<unsigned-char>=vector.dll vectorbool.dll> for level 0; ignored
Warning in <TEnvRec::ChangeValue>: duplicate entry <Library.vector<unsigned-int>=vector.dll vectorbool.dll> for level 0; ignored
Warning in <TEnvRec::ChangeValue>: duplicate entry <Library.vector<unsigned-long>=vector.dll vectorbool.dll> for level 0; ignored
Warning in <TEnvRec::ChangeValue>: duplicate entry <Library.vector<unsigned-short>=vector.dll vectorbool.dll> for level 0; ignored
PyJobTransforms.trfValidation.performStandardFileValidation 2019-08-04 19:13:10,639 INFO Corruption test passed.
PyJobTransforms.trfValidation.performStandardFileValidation 2019-08-04 19:13:10,639 INFO EVNT.10867034._003922.pool.root.1: Testing event count...
PyJobTransforms.trfValidation.performStandardFileValidation 2019-08-04 19:13:10,639 INFO Event counting test passed (5 events).
PyJobTransforms.trfValidation.performStandardFileValidation 2019-08-04 19:13:10,639 INFO EVNT.10867034._003922.pool.root.1: Checking if guid exists...
PyJobTransforms.trfValidation.performStandardFileValidation 2019-08-04 19:13:10,640 INFO Guid is B247401D-BE91-DA4F-B5D2-A0EFAD99CFEA
PyJobTransforms.trfValidation.performStandardFileValidation 2019-08-04 19:13:10,640 INFO Stopping legacy (serial) file validation
PyJobTransforms.main 2019-08-04 19:13:13,720 INFO /cvmfs/atlas.cern.ch/repo/sw/software/x86_64-slc6-gcc47-opt/19.2.5/AtlasProduction/19.2.5.5/InstallArea/share/bin/Generate_tf.py stopped at Sun Aug  4 19:13:13 2019, trf exit code 0
