Parsing results from /results/atlas-sim-n2-t2-e3-1562758182_5896/proc_1/log.EVNTtoHITS
Parsing results from /results/atlas-sim-n2-t2-e3-1562758182_5896/proc_2/log.EVNTtoHITS
Parsing results from  /results/atlas-sim-n2-t2-e3-1562758182_5896/proc_1/log.EVNTtoHITS /results/atlas-sim-n2-t2-e3-1562758182_5896/proc_2/log.EVNTtoHITS
{"copies":2 , "threads_per_copy":2 , "events_per_thread" : 3 , "CPU_score": "[ERROR] Something went wrong in parsing the CPU score" , "log": "ok", "app":{"version":"v0.11","description":"ATLAS Sim (GEANT4) based on athena version 21.0.15","checksum":"7d9492ceadf490c1933f491ba610b610"} }
Parsing results from /results/atlas-sim-n2-t2-e3-1562761900_4287/proc_1/log.EVNTtoHITS
Parsing results from /results/atlas-sim-n2-t2-e3-1562761900_4287/proc_2/log.EVNTtoHITS
Parsing results from  /results/atlas-sim-n2-t2-e3-1562761900_4287/proc_1/log.EVNTtoHITS /results/atlas-sim-n2-t2-e3-1562761900_4287/proc_2/log.EVNTtoHITS
{"copies":2 , "threads_per_copy":2 , "events_per_thread" : 3 , "CPU_score": "[ERROR] Something went wrong in parsing the CPU score" , "log": "ok", "app":{"version":"v0.11","description":"ATLAS Sim (GEANT4) based on athena version 21.0.15","checksum":"d8f05870eea1eb686a501c42830704f1"} }
